^C:\USERS\SWANE\SOURCE\REPOS\UNORDEREDARRAY_SEATWORK04_GDSTRUCT_FINAL\UNORDEREDARRAY_SEATWORK04_GDSTRUCT_FINAL\SOURCE.CPP
C:\USERS\SWANE\SOURCE\REPOS\UNORDEREDARRAY_SEATWORK04_GDSTRUCT_FINAL\UNORDEREDARRAY_SEATWORK04_GDSTRUCT_FINAL\DEBUG\VC142.PDB
C:\USERS\SWANE\SOURCE\REPOS\UNORDEREDARRAY_SEATWORK04_GDSTRUCT_FINAL\UNORDEREDARRAY_SEATWORK04_GDSTRUCT_FINAL\DEBUG\VC142.IDB
C:\USERS\SWANE\SOURCE\REPOS\UNORDEREDARRAY_SEATWORK04_GDSTRUCT_FINAL\UNORDEREDARRAY_SEATWORK04_GDSTRUCT_FINAL\DEBUG\SOURCE.OBJ
